{
	"Meshes" : {
		"Vehicles/Falcon/Chasse" : "assets/Meshes/Vehicles/Falcon/falconchasse.obj",
		"Vehicles/Falcon/Wing" : "assets/Meshes/Vehicles/Falcon/falconwing.obj",
		"Objects/FalconPrimaryBullet" : "assets/Meshes/Objects/bullet.obj"
	}
}